<?xml version="1.0" encoding="UTF-8" standalone="no"?>
<!-- Created with Inkscape (http://www.inkscape.org/) -->
<svg id="svg3229" xmlns:rdf="http://www.w3.org/1999/02/22-rdf-syntax-ns#" xmlns="http://www.w3.org/2000/svg" height="24" width="24" version="1.0" xmlns:cc="http://creativecommons.org/ns#" xmlns:dc="http://purl.org/dc/elements/1.1/">
 <metadata id="metadata9">
  <rdf:RDF>
   <cc:Work rdf:about="">
    <dc:format>image/svg+xml</dc:format>
    <dc:type rdf:resource="http://purl.org/dc/dcmitype/StillImage"/>
    <dc:title/>
   </cc:Work>
  </rdf:RDF>
 </metadata>
 <path id="rect3170-2" style="opacity:.3;fill:#fff" d="m4.305 7.0221c-0.6094 0-1.305 0.7602-1.305 1.3142v9.2987c0 0.731 0.7889 1.365 1.4535 1.365h15.048c0.798 0 1.498-0.678 1.498-1.376v-9.1594c0-0.7756-0.689-1.4646-1.409-1.4646l-15.286 0.0221zm0.5388 1.1341 6.8442 6.8438h0.59375l6.875-6.8438 0.6875 0.6875-4.094 4.1563 3.0938 3.1562-0.6875 0.6875-3.156-3.156-2.281 2.312h-1.438l-2.281-2.312-3.1562 3.187-0.6876-0.719 3.125-3.156-4.125-4.1562 0.6876-0.6876z"/>
 <path id="rect3170" style="fill:#3c3c3c" d="m4.305 6.0221c-0.6094 0-1.305 0.7602-1.305 1.3142v9.2987c0 0.731 0.7889 1.365 1.4535 1.365h15.048c0.798 0 1.498-0.678 1.498-1.376v-9.1594c0-0.7756-0.689-1.4646-1.409-1.4646l-15.286 0.0221zm0.5388 1.1341 6.8442 6.8438h0.59375l6.875-6.8438 0.6875 0.6875-4.094 4.1563 3.0938 3.1562-0.6875 0.6875-3.156-3.156-2.281 2.312h-1.438l-2.281-2.312-3.1562 3.187-0.6876-0.719 3.125-3.156-4.125-4.1562 0.6876-0.6876z"/>
</svg>
