<?xml version="1.0" encoding="UTF-8" standalone="no"?>
<!-- Created with Inkscape (http://www.inkscape.org/) -->
<svg id="svg2643" xmlns:rdf="http://www.w3.org/1999/02/22-rdf-syntax-ns#" xmlns="http://www.w3.org/2000/svg" height="48" width="48" version="1.0" xmlns:cc="http://creativecommons.org/ns#" xmlns:xlink="http://www.w3.org/1999/xlink" xmlns:dc="http://purl.org/dc/elements/1.1/">
 <defs id="defs2645">
  <radialGradient id="radialGradient6781" gradientUnits="userSpaceOnUse" cy="64.927" cx="84.366" gradientTransform="matrix(.71912 0 0 .71912 23.696 18.237)" r="22.335">
   <stop id="stop4391" style="stop-color:#555753" offset="0"/>
   <stop id="stop4393" style="stop-color:#eeeeec" offset="1"/>
  </radialGradient>
 </defs>
 <metadata id="metadata2648">
  <rdf:RDF>
   <cc:Work rdf:about="">
    <dc:format>image/svg+xml</dc:format>
    <dc:type rdf:resource="http://purl.org/dc/dcmitype/StillImage"/>
    <dc:subject>
     <rdf:Bag>
      <rdf:li>audio</rdf:li>
      <rdf:li>device</rdf:li>
      <rdf:li>subwoofer</rdf:li>
      <rdf:li>output</rdf:li>
     </rdf:Bag>
    </dc:subject>
    <dc:title>audio-subwoofer</dc:title>
    <dc:creator>
     <cc:Agent>
      <dc:title>Evangeline McGlynn</dc:title>
     </cc:Agent>
    </dc:creator>
   </cc:Work>
  </rdf:RDF>
 </metadata>
 <g id="layer1">
  <g id="g6770">
   <path id="path3286" style="stroke-linejoin:round;stroke:#2e3436;fill:#555753" d="m42.842 39.045c-0.377 2.427-1.428 4.174-2.663 4.174-1.243 0-2.299-1.769-2.67-4.219 0.35-1.183 1.666-1.763 2.681-1.729 1.286-0.067 2.28 0.678 2.652 1.774z"/>
   <path id="path3288" style="stroke-linejoin:round;stroke:#2e3436;fill:#555753" d="m11.019 39.045c-0.378 2.427-1.4279 4.174-2.6633 4.174-1.2431 0-2.2987-1.769-2.6702-4.219 0.3505-1.183 1.6661-1.763 2.6816-1.729 1.286-0.067 2.2789 0.678 2.6519 1.774z"/>
   <path id="path3264" style="stroke-linejoin:bevel;stroke-width:1.2866;stroke:#2e3436;fill:#555753" d="m11.579 6.9789c10.455-2.8495 14.34-2.6272 24.964 0l7.399 6.1731h-39.763l7.4-6.1731z"/>
   <path id="path3266" style="stroke:#2e3436;fill:#888a85" d="m3.9146 13.137c12.572-3.3513 27.215-3.2654 40.157 0l-0.057 26.63c-13.213 2.348-27.102 2.393-40.044 0.136l-0.0564-26.766z"/>
   <path id="path3238" style="stroke-linejoin:round;stroke-width:2.0584;stroke:#555753;fill:url(#radialGradient6781)" d="m105.76 64.927a21.396 21.396 0 1 1 -42.79 0 21.396 21.396 0 1 1 42.79 0z" transform="matrix(0 .48582 -.48582 0 49.058 -14.785)"/>
   <path id="path3260" style="fill:#eeeeec" d="m105.76 64.927a21.396 21.396 0 1 1 -42.79 0 21.396 21.396 0 1 1 42.79 0z" transform="matrix(0 .28278 -.28278 0 53.718 2.3438)"/>
   <path id="path6518" style="stroke-linejoin:round;stroke-width:5.0673;stroke:#2e3436;fill:#555753" d="m105.76 64.927a21.396 21.396 0 1 1 -42.79 0 21.396 21.396 0 1 1 42.79 0z" transform="matrix(0 .19734 -.19734 0 48.149 9.5522)"/>
   <path id="path6561" style="stroke:#babdb6;fill:none" d="m4.9462 13.951c11.503-2.989 24.84-3.016 38.095 0l-0.057 24.942c-13.349 2.085-25.977 2.268-37.981 0.136l-0.0568-25.078z"/>
   <path id="path6581" style="stroke-linejoin:round;stroke-width:5.0673;stroke:#2e3436;fill:#555753" d="m105.76 64.927a21.396 21.396 0 1 1 -42.79 0 21.396 21.396 0 1 1 42.79 0z" transform="matrix(0 .19734 -.19734 0 30.328 9.5522)"/>
  </g>
 </g>
</svg>
